module gitlab.com/NotDzhedai/govrillo

go 1.21.3

require (
	github.com/a-h/templ v0.2.501
	github.com/bluesky-social/indigo v0.0.0-20231223174404-b877bf639d74
	github.com/google/uuid v1.4.0
)

require (
	github.com/beorn7/perks v1.0.1 // indirect
	github.com/carlmjohnson/versioninfo v0.22.5 // indirect
	github.com/cespare/xxhash/v2 v2.2.0 // indirect
	github.com/cpuguy83/go-md2man/v2 v2.0.3 // indirect
	github.com/decred/dcrd/dcrec/secp256k1/v4 v4.2.0 // indirect
	github.com/felixge/httpsnoop v1.0.4 // indirect
	github.com/go-logr/logr v1.3.0 // indirect
	github.com/go-logr/stdr v1.2.2 // indirect
	github.com/goccy/go-json v0.10.2 // indirect
	github.com/gogo/protobuf v1.3.2 // indirect
	github.com/hashicorp/go-cleanhttp v0.5.2 // indirect
	github.com/hashicorp/go-retryablehttp v0.7.5 // indirect
	github.com/hashicorp/golang-lru v1.0.2 // indirect
	github.com/hashicorp/golang-lru/arc/v2 v2.0.6 // indirect
	github.com/hashicorp/golang-lru/v2 v2.0.7 // indirect
	github.com/ipfs/bbloom v0.0.4 // indirect
	github.com/ipfs/go-block-format v0.2.0 // indirect
	github.com/ipfs/go-cid v0.4.1 // indirect
	github.com/ipfs/go-datastore v0.6.0 // indirect
	github.com/ipfs/go-ipfs-blockstore v1.3.1 // indirect
	github.com/ipfs/go-ipfs-ds-help v1.1.1 // indirect
	github.com/ipfs/go-ipfs-util v0.0.3 // indirect
	github.com/ipfs/go-ipld-cbor v0.1.0 // indirect
	github.com/ipfs/go-ipld-format v0.6.0 // indirect
	github.com/ipfs/go-log v1.0.5 // indirect
	github.com/ipfs/go-log/v2 v2.5.1 // indirect
	github.com/ipfs/go-metrics-interface v0.0.1 // indirect
	github.com/jackc/pgpassfile v1.0.0 // indirect
	github.com/jackc/pgservicefile v0.0.0-20221227161230-091c0ba34f0a // indirect
	github.com/jackc/pgx/v5 v5.5.0 // indirect
	github.com/jackc/puddle/v2 v2.2.1 // indirect
	github.com/jbenet/goprocess v0.1.4 // indirect
	github.com/jinzhu/inflection v1.0.0 // indirect
	github.com/jinzhu/now v1.1.5 // indirect
	github.com/klauspost/cpuid/v2 v2.2.6 // indirect
	github.com/lestrrat-go/blackmagic v1.0.1 // indirect
	github.com/lestrrat-go/httpcc v1.0.1 // indirect
	github.com/lestrrat-go/httprc v1.0.4 // indirect
	github.com/lestrrat-go/iter v1.0.2 // indirect
	github.com/lestrrat-go/jwx/v2 v2.0.12 // indirect
	github.com/lestrrat-go/option v1.0.1 // indirect
	github.com/mattn/go-isatty v0.0.20 // indirect
	github.com/mattn/go-sqlite3 v1.14.18 // indirect
	github.com/matttproud/golang_protobuf_extensions/v2 v2.0.0 // indirect
	github.com/minio/sha256-simd v1.0.1 // indirect
	github.com/mitchellh/go-homedir v1.1.0 // indirect
	github.com/mr-tron/base58 v1.2.0 // indirect
	github.com/multiformats/go-base32 v0.1.0 // indirect
	github.com/multiformats/go-base36 v0.2.0 // indirect
	github.com/multiformats/go-multibase v0.2.0 // indirect
	github.com/multiformats/go-multihash v0.2.3 // indirect
	github.com/multiformats/go-varint v0.0.7 // indirect
	github.com/opentracing/opentracing-go v1.2.0 // indirect
	github.com/polydawn/refmt v0.89.1-0.20221221234430-40501e09de1f // indirect
	github.com/prometheus/client_golang v1.17.0 // indirect
	github.com/prometheus/client_model v0.5.0 // indirect
	github.com/prometheus/common v0.45.0 // indirect
	github.com/prometheus/procfs v0.12.0 // indirect
	github.com/russross/blackfriday/v2 v2.1.0 // indirect
	github.com/segmentio/asm v1.2.0 // indirect
	github.com/spaolacci/murmur3 v1.1.0 // indirect
	github.com/urfave/cli/v2 v2.25.7 // indirect
	github.com/whyrusleeping/cbor-gen v0.0.0-20230923211252-36a87e1ba72f // indirect
	github.com/whyrusleeping/go-did v0.0.0-20230824162731-404d1707d5d6 // indirect
	github.com/xrash/smetrics v0.0.0-20201216005158-039620a65673 // indirect
	gitlab.com/yawning/secp256k1-voi v0.0.0-20230925100816-f2616030848b // indirect
	gitlab.com/yawning/tuplehash v0.0.0-20230713102510-df83abbf9a02 // indirect
	go.opentelemetry.io/contrib/instrumentation/net/http/otelhttp v0.42.0 // indirect
	go.opentelemetry.io/otel v1.21.0 // indirect
	go.opentelemetry.io/otel/metric v1.21.0 // indirect
	go.opentelemetry.io/otel/trace v1.21.0 // indirect
	go.uber.org/atomic v1.11.0 // indirect
	go.uber.org/multierr v1.11.0 // indirect
	go.uber.org/zap v1.26.0 // indirect
	golang.org/x/crypto v0.15.0 // indirect
	golang.org/x/sync v0.5.0 // indirect
	golang.org/x/sys v0.14.0 // indirect
	golang.org/x/text v0.14.0 // indirect
	golang.org/x/xerrors v0.0.0-20231012003039-104605ab7028 // indirect
	google.golang.org/protobuf v1.31.0 // indirect
	gorm.io/driver/postgres v1.5.0 // indirect
	gorm.io/driver/sqlite v1.5.4 // indirect
	gorm.io/gorm v1.25.5 // indirect
	lukechampine.com/blake3 v1.2.1 // indirect
)
